   _____                     _   ___    ______ _____  _      
  / ____|                   | | |__ \  |  ____|  __ \| |     
 | |     __ _ _ __ ___   ___| |    ) | | |__  | |__) | |     
 | |    / _` | '_ ` _ \ / _ \ |   / /  |  __| |  ___/| |     
 | |___| (_| | | | | | |  __/ |  / /_  | |____| |    | |____ 
  \_____\__,_|_| |_| |_|\___|_| |____| |______|_|    |______|
                                                             
                                                             